Auto K-Means with healthyR.ai • healthyR.ai
…
model_id (h2o model id)

scree_plt (a ggplot2 object)

Lets explor each of these items.

Data

Inside of the data list there are several sections. We can view and access these very simply. You will find that all of the outputs have been labeled in a very simple to understand manner.

output$data
#> $splits
#> $splits$training_tbl
#> # A tibble: 123 x 5
#>    Sepal.Length Sepal.Width Petal.Length Petal.Width Species
#>           <dbl>       <dbl>        <dbl>       <dbl> <fct>  
#>  1          5.1         3.5          1.4         0.2 setosa 
#>  2          4.9         3            1.4         0.2 setosa 
#>  3          4.7         3.2          1.3         0.2 setosa 
#>  4          5           3.6          1.4         0.2 setosa 
#>  5          5.4         3.9          1.7         0.4 setosa 
#>  6          4.6         3.4          1.4         0.3 setosa 
#>  7          5           3.4          1.5         0.2 setosa 
#>  8          4.4         2.9          1.4         0.2 setosa 
#>  9          5.4         3.7          1.5         0.2 setosa 
#> 10          4.8         3.4          1.6         0.2 setosa 
#> # ... with 113 more rows
#> 
#> $splits$validate_tbl
#> # A tibble: 27 x 5
#>    Sepal.Length Sepal.Width Petal.Length Petal.Width Species
#>           <dbl>       <dbl>        <dbl>       <dbl> <fct>  
#>  1          4.6         3.1          1.5         0.2 setosa 
#>  2          4.9         3.1          1.5         0.1 setosa 
#>  3          5.8         4            1.2         0.2 setosa 
#>  4          5.1         3.5          1.4         0.3 setosa 
#>  5          5.7         3.8          1.7         0.3 setosa 
#>  6          5.1         3.8          1.5         0.3 setosa 
#>  7          5.4         3.4          1.7         0.2 setosa 
#>  8          5.1         3.7          1.5         0.4 setosa 
#>  9          5           3.4          1.6         0.4 setosa 
#> 10          4.7         3.2          1.6         0.2 setosa 
#> # ... with 17 more rows
…
