Getting Started with healthyR.ai • healthyR.ai
…
Variable Loadings

pca_list$variable_loadings
#> # A tibble: 169 x 4
#>    terms                 value component id       
#>    <chr>                 <dbl> <chr>     <chr>    
#>  1 date_col_index.num -0.0911  PC1       pca_O7eW2
#>  2 date_col_year      -0.0361  PC1       pca_O7eW2
#>  3 date_col_half      -0.381   PC1       pca_O7eW2
#>  4 date_col_quarter   -0.430   PC1       pca_O7eW2
#>  5 date_col_month     -0.433   PC1       pca_O7eW2
#>  6 date_col_wday       0.0227  PC1       pca_O7eW2
#>  7 date_col_qday      -0.0751  PC1       pca_O7eW2
#>  8 date_col_yday      -0.434   PC1       pca_O7eW2
#>  9 date_col_mweek      0.00602 PC1       pca_O7eW2
#> 10 date_col_week      -0.434   PC1       pca_O7eW2
#> # ... with 159 more rows

Variable Variance

pca_list$variable_variance
#> # A tibble: 52 x 4
#>    terms       value component id       
#>    <chr>       <dbl>     <int> <chr>    
#>  1 variance 5.23             1 pca_O7eW2
#>  2 variance 2.00             2 pca_O7eW2
#>  3 variance 1.53             3 pca_O7eW2
#>  4 variance 1.26             4 pca_O7eW2
#>  5 variance 1.14             5 pca_O7eW2
#>  6 variance 0.722            6 pca_O7eW2
#>  7 variance 0.616            7 pca_O7eW2
#>  8 variance 0.453            8 pca_O7eW2
#>  9 variance 0.0507           9 pca_O7eW2
#> 10 variance 0.000201        10 pca_O7eW2
#> # ... with 42 more rows
…
