…
### Variable Loadings

``` r
pca_list$variable_loadings
#> # A tibble: 169 × 4
#>    terms                 value component id       
#>    <chr>                 <dbl> <chr>     <chr>    
#>  1 date_col_index.num  0.0167  PC1       pca_neMYl
#>  2 date_col_year      -0.0373  PC1       pca_neMYl
#>  3 date_col_half       0.381   PC1       pca_neMYl
#>  4 date_col_quarter    0.430   PC1       pca_neMYl
#>  5 date_col_month      0.434   PC1       pca_neMYl
#>  6 date_col_wday       0.00286 PC1       pca_neMYl
#>  7 date_col_qday       0.0839  PC1       pca_neMYl
#>  8 date_col_yday       0.434   PC1       pca_neMYl
#>  9 date_col_mweek     -0.0566  PC1       pca_neMYl
#> 10 date_col_week       0.434   PC1       pca_neMYl
#> # ℹ 159 more rows
```

### Variable Variance

``` r
pca_list$variable_variance
#> # A tibble: 52 × 4
#>    terms       value component id       
#>    <chr>       <dbl>     <int> <chr>    
#>  1 variance 5.22             1 pca_neMYl
#>  2 variance 2.01             2 pca_neMYl
#>  3 variance 1.51             3 pca_neMYl
#>  4 variance 1.30             4 pca_neMYl
#>  5 variance 1.17             5 pca_neMYl
#>  6 variance 0.666            6 pca_neMYl
#>  7 variance 0.578            7 pca_neMYl
#>  8 variance 0.492            8 pca_neMYl
#>  9 variance 0.0589           9 pca_neMYl
#> 10 variance 0.000247        10 pca_neMYl
#> # ℹ 42 more rows
```
…
