…
The data that we have generated is going to look for clustering amongst
the *`service_lines`* (the user) and the *`payer_grouping`* (item)
columns.

Lets now create the user item table.

## User Item Tibble

``` r
uit_tbl <- hai_kmeans_user_item_tbl(data_tbl, service_line, payer_grouping, record)
uit_tbl
#> # A tibble: 23 × 12
#>    service_line     `Blue Cross` Commercial Compensation `Exchange Plans`    HMO
#>    <chr>                   <dbl>      <dbl>        <dbl>            <dbl>  <dbl>
#>  1 Alcohol Abuse          0.0941    0.0321      0.000525          0.0116  0.0788
#>  2 Bariatric Surge…       0.317     0.0583      0                 0.0518  0.168 
#>  3 CHF                    0.0295    0.00958     0.000518          0.00414 0.0205
#>  4 COPD                   0.0493    0.0228      0.000228          0.00548 0.0342
#>  5 CVA                    0.0647    0.0246      0.00107           0.0107  0.0524
#>  6 Carotid Endarte…       0.0845    0.0282      0                 0       0.0141
#>  7 Cellulitis             0.110     0.0339      0.0118            0.00847 0.0805
#>  8 Chest Pain             0.144     0.0391      0.00290           0.00543 0.112 
#>  9 GI Hemorrhage          0.0542    0.0175      0.00125           0.00834 0.0480
#> 10 Joint Replaceme…       0.139     0.0179      0.0336            0.00673 0.0516
#> # ℹ 13 more rows
#> # ℹ 6 more variables: Medicaid <dbl>, `Medicaid HMO` <dbl>, `Medicare A` <dbl>,
#> #   `Medicare HMO` <dbl>, `No Fault` <dbl>, `Self Pay` <dbl>
```
…
Since we have the list object we can now inspect the `kmeans_obj`, first
thing we will do is use the `hai_kmeans_tidy_tbl` function to inspect
things.

``` r
km_obj <- ump_lst$kmeans_obj
hai_kmeans_tidy_tbl(.kmeans_obj = km_obj, .data = uit_tbl, .tidy_type = "glance")
#> # A tibble: 1 × 4
#>   totss tot.withinss betweenss  iter
#>   <dbl>        <dbl>     <dbl> <int>
#> 1  1.41        0.372      1.04     3
hai_kmeans_tidy_tbl(km_obj, uit_tbl, "augment")
#> # A tibble: 23 × 2
#>    service_line                  cluster
#>    <chr>                         <fct>  
#>  1 Alcohol Abuse                 3      
#>  2 Bariatric Surgery For Obesity 3      
#>  3 CHF                           2      
#>  4 COPD                          2      
#>  5 CVA                           2      
#>  6 Carotid Endarterectomy        2      
#>  7 Cellulitis                    1      
#>  8 Chest Pain                    1      
#>  9 GI Hemorrhage                 2      
#> 10 Joint Replacement             2      
#> # ℹ 13 more rows
…
