Get the Juiced Data — get_juiced_data • healthyR.ai
…
splits <- initial_split(data = data_tbl, prop = 0.8)

rec_obj <- recipe(value ~., training(splits))

get_juiced_data(rec_obj)

#> # A tibble: 76 x 2
#>    date_col            value
#>    <dttm>              <int>
#>  1 2016-09-01 00:00:00  1511
#>  2 2014-11-01 00:00:00  1464
#>  3 2019-04-01 00:00:00  1443
#>  4 2018-03-01 00:00:00  1618
#>  5 2016-11-01 00:00:00  1513
#>  6 2015-07-01 00:00:00  1751
#>  7 2018-08-01 00:00:00  1609
#>  8 2019-01-01 00:00:00  1631
#>  9 2018-09-01 00:00:00  1343
#> 10 2013-05-01 00:00:00  2028
#> # ... with 66 more rows
…
