…
splits <- initial_split(data = data_tbl, prop = 0.8)

rec_obj <- recipe(value ~ ., training(splits))

get_juiced_data(rec_obj)
#> # A tibble: 76 × 2
#>    date_col            value
#>    <dttm>              <int>
#>  1 2016-11-01 00:00:00  1513
#>  2 2015-07-01 00:00:00  1751
#>  3 2018-08-01 00:00:00  1609
#>  4 2019-01-01 00:00:00  1631
#>  5 2018-09-01 00:00:00  1343
#>  6 2013-05-01 00:00:00  2028
#>  7 2014-12-01 00:00:00  1757
#>  8 2019-07-01 00:00:00  1474
#>  9 2019-05-01 00:00:00  1486
#> 10 2013-02-01 00:00:00  1719
#> # ℹ 66 more rows
```
