…
#> 
#> ── Inputs 
#> Number of variables by role
#> outcome:   1
#> predictor: 4
#> 
#> ── Operations 
#> • Factor variables from: tidyselect::vars_select_helpers$where(is.character)
#> • Novel factor level assignment for: recipes::all_nominal_predictors()
#> • Dummy variables from: recipes::all_nominal_predictors()
#> • Zero variance filter on: recipes::all_predictors()
#> • Centering and scaling for: recipes::all_numeric_predictors()
rec_obj <- hai_glmnet_data_prepper(Titanic, Survived ~ .)
get_juiced_data(rec_obj)
#> # A tibble: 32 × 7
#>         n Survived Class_X2nd Class_X3rd Class_Crew Sex_Male Age_Child
#>     <dbl> <fct>         <dbl>      <dbl>      <dbl>    <dbl>     <dbl>
#>  1 -0.506 No           -0.568     -0.568     -0.568    0.984     0.984
#>  2 -0.506 No            1.70      -0.568     -0.568    0.984     0.984
#>  3 -0.248 No           -0.568      1.70      -0.568    0.984     0.984
#>  4 -0.506 No           -0.568     -0.568      1.70     0.984     0.984
#>  5 -0.506 No           -0.568     -0.568     -0.568   -0.984     0.984
#>  6 -0.506 No            1.70      -0.568     -0.568   -0.984     0.984
#>  7 -0.381 No           -0.568      1.70      -0.568   -0.984     0.984
#>  8 -0.506 No           -0.568     -0.568      1.70    -0.984     0.984
#>  9  0.362 No           -0.568     -0.568     -0.568    0.984    -0.984
#> 10  0.627 No            1.70      -0.568     -0.568    0.984    -0.984
#> # ℹ 22 more rows
```
