Data Preprocessor - Scale/Normalize — hai_data_scale • healthyR.ai
…
rec_obj <- recipe(value ~ ., df_tbl)

hai_data_scale(
  .recipe_object = rec_obj,
  value,
  .type_of_scale = "center"
)$scale_rec_obj %>%
  get_juiced_data()
#> # A tibble: 100 × 2
#>    date_col     value
#>    <date>       <dbl>
#>  1 2013-01-01 -0.0513
#>  2 2013-02-01  1.43  
#>  3 2013-03-01 -0.740 
#>  4 2013-04-01  3.90  
#>  5 2013-05-01 -0.493 
#>  6 2013-06-01 -3.06  
#>  7 2013-07-01 -2.56  
#>  8 2013-08-01  3.14  
#>  9 2013-09-01 -0.431 
#> 10 2013-10-01 -1.15  
#> # ℹ 90 more rows
…
