Data Preprocessor - Transformation Functions — hai_data_transform • healthyR.ai
…
rec_obj <- recipe(value ~ ., df_tbl)

hai_data_transform(
  .recipe_object = rec_obj,
  value,
  .type_of_scale = "log"
)$scale_rec_obj %>%
  get_juiced_data()
#> # A tibble: 100 × 2
#>    date_col   value
#>    <date>     <dbl>
#>  1 2013-01-01  1.96
#>  2 2013-02-01  1.93
#>  3 2013-03-01  1.11
#>  4 2013-04-01  1.53
#>  5 2013-05-01  1.79
#>  6 2013-06-01  1.74
#>  7 2013-07-01  1.77
#>  8 2013-08-01  1.60
#>  9 2013-09-01  2.10
#> 10 2013-10-01  2.05
#> # ℹ 90 more rows
…
