…
rec_obj <- recipe(value ~ ., df_tbl)

hai_data_impute(
  .recipe_object = rec_obj,
  value,
  .type_of_imputation = "roll",
  .roll_statistic = median
)$new_rec_obj %>%
  get_juiced_data()
#> # A tibble: 100 × 2
#>    date_col    value
#>    <date>      <dbl>
#>  1 2013-01-01  0.408
#>  2 2013-02-01  1.39 
#>  3 2013-03-01  0.360
#>  4 2013-04-01  0.655
#>  5 2013-05-01  1.05 
#>  6 2013-06-01 -1.98 
#>  7 2013-07-01  1.21 
#>  8 2013-08-01 -0.169
#>  9 2013-09-01  0.295
#> 10 2013-10-01  0.351
#> # ℹ 90 more rows
```
