…
#> ── Recipe ──────────────────────────────────────────────────────────────────────
#> 
#> ── Inputs 
#> Number of variables by role
#> outcome:   1
#> predictor: 4
#> 
#> ── Operations 
#> • Novel factor level assignment for: recipes::all_nominal_predictors()
#> • Dummy variables from: recipes::all_nominal_predictors()
#> • Zero variance filter on: recipes::all_predictors()
#> • Centering and scaling for: recipes::all_numeric()
rec_obj <- hai_knn_data_prepper(iris, Species ~ .)
get_juiced_data(rec_obj)
#> # A tibble: 150 × 5
#>    Sepal.Length Sepal.Width Petal.Length Petal.Width Species
#>           <dbl>       <dbl>        <dbl>       <dbl> <fct>  
#>  1       -0.898      1.02          -1.34       -1.31 setosa 
#>  2       -1.14      -0.132         -1.34       -1.31 setosa 
#>  3       -1.38       0.327         -1.39       -1.31 setosa 
#>  4       -1.50       0.0979        -1.28       -1.31 setosa 
#>  5       -1.02       1.25          -1.34       -1.31 setosa 
#>  6       -0.535      1.93          -1.17       -1.05 setosa 
#>  7       -1.50       0.786         -1.34       -1.18 setosa 
#>  8       -1.02       0.786         -1.28       -1.31 setosa 
#>  9       -1.74      -0.361         -1.34       -1.31 setosa 
#> 10       -1.14       0.0979        -1.28       -1.44 setosa 
#> # ℹ 140 more rows
```
