…
date_seq <- seq.Date(from = as.Date("2013-01-01"), length.out = 100, by = "month")
val_seq <- rep(rnorm(10, mean = 6, sd = 2), times = 10)
df_tbl <- tibble(
  date_col = date_seq,
  value    = val_seq
)

rec_obj <- recipe(value ~ ., df_tbl)

hai_data_poly(
  .recipe_object = rec_obj,
  value
)$new_rec_obj %>%
  get_juiced_data()
#> # A tibble: 100 × 3
#>    date_col   value_poly_1 value_poly_2
#>    <date>            <dbl>        <dbl>
#>  1 2013-01-01    -0.118         0.105  
#>  2 2013-02-01     0.225         0.189  
#>  3 2013-03-01    -0.00906      -0.0748 
#>  4 2013-04-01    -0.0696        0.00185
#>  5 2013-05-01    -0.128         0.133  
#>  6 2013-06-01    -0.0637       -0.00827
#>  7 2013-07-01     0.0802       -0.0792 
#>  8 2013-08-01     0.0498       -0.0923 
#>  9 2013-09-01    -0.000382     -0.0809 
#> 10 2013-10-01     0.0339       -0.0931 
#> # ℹ 90 more rows
```
