UMAP Projection — hai_umap_list • healthyR.ai
…
#> [14,] -1.0857166  0.54169817
#> [15,]  0.1206807 -0.13172846
#> [16,] -0.4051784  0.73150510
#> [17,]  1.8430504 -0.15649157
#> [18,] -1.3726370 -0.22510844
#> [19,] -0.6601988  0.34070463
#> [20,]  1.0690769 -0.17369013
#> [21,]  0.5521463 -0.02921420
#> [22,] -2.1893172  0.50073118
#> [23,]  2.0217880 -0.59675913
#> attr(,"scaled:center")
#> [1]  2.875485 -8.843054
#> 
#> $umap_results_tbl
#> # A tibble: 23 × 3
#>         x       y service_line                 
#>     <dbl>   <dbl> <chr>                        
#>  1 -2.17  -0.0138 Alcohol Abuse                
#>  2 -1.98   0.914  Bariatric Surgery For Obesity
#>  3  1.77  -1.11   CHF                          
#>  4  0.472 -0.545  COPD                         
#>  5  1.49   0.0427 CVA                          
#>  6  2.06  -0.949  Carotid Endarterectomy       
#>  7 -0.931  0.0128 Cellulitis                   
#>  8 -0.971  0.884  Chest Pain                   
#>  9  1.49  -0.596  GI Hemorrhage                
#> 10  0.971  0.265  Joint Replacement            
#> # … with 13 more rows
…
#> 
#> Clustering vector:
#>  [1] 2 2 3 3 3 3 1 1 3 3 2 3 2 1 3 1 3 1 1 3 3 2 3
#> 
#> Within cluster sum of squares by cluster:
#> [1] 0.08456928 0.19152559 0.09625399
#>  (between_SS / total_SS =  73.6 %)
#> 
#> Available components:
#> 
#> [1] "cluster"      "centers"      "totss"        "withinss"     "tot.withinss"
#> [6] "betweenss"    "size"         "iter"         "ifault"      
#> 
#> $kmeans_cluster_tbl
#> # A tibble: 23 × 2
#>    service_line                  .cluster
#>    <chr>                         <fct>   
#>  1 Alcohol Abuse                 2       
#>  2 Bariatric Surgery For Obesity 2       
#>  3 CHF                           3       
#>  4 COPD                          3       
#>  5 CVA                           3       
#>  6 Carotid Endarterectomy        3       
#>  7 Cellulitis                    1       
#>  8 Chest Pain                    1       
#>  9 GI Hemorrhage                 3       
#> 10 Joint Replacement             3       
#> # … with 13 more rows
#> 
#> $umap_kmeans_cluster_results_tbl
#> # A tibble: 23 × 4
#>         x       y service_line                  .cluster
#>     <dbl>   <dbl> <chr>                         <fct>   
#>  1 -2.17  -0.0138 Alcohol Abuse                 2       
#>  2 -1.98   0.914  Bariatric Surgery For Obesity 2       
#>  3  1.77  -1.11   CHF                           3       
#>  4  0.472 -0.545  COPD                          3       
#>  5  1.49   0.0427 CVA                           3       
#>  6  2.06  -0.949  Carotid Endarterectomy        3       
#>  7 -0.931  0.0128 Cellulitis                    1       
#>  8 -0.971  0.884  Chest Pain                    1       
#>  9  1.49  -0.596  GI Hemorrhage                 3       
#> 10  0.971  0.265  Joint Replacement             3       
#> # … with 13 more rows
…
