Augment Function Winsorize Truncate — hai_winsorized_truncate_augment • healthyR.ai
…
suppressPackageStartupMessages(library(dplyr))

len_out    = 24
by_unit    = "month"
start_date = as.Date("2021-01-01")

data_tbl <- tibble(
  date_col = seq.Date(from = start_date, length.out = len_out, by = by_unit),
  a    = rnorm(len_out),
  b    = runif(len_out)
)

hai_winsorized_truncate_augment(data_tbl, a, .fraction = 0.05)
#> # A tibble: 24 × 4
#>    date_col         a      b winsor_trunc_a
#>    <date>       <dbl>  <dbl>          <dbl>
#>  1 2021-01-01 -1.03   0.550         -1.03  
#>  2 2021-02-01 -0.151  0.420         -0.151 
#>  3 2021-03-01  0.452  0.203          0.452 
#>  4 2021-04-01  0.0527 0.306          0.0527
#>  5 2021-05-01 -0.839  0.0756        -0.839 
#>  6 2021-06-01  1.09   0.606          1.09  
#>  7 2021-07-01 -1.21   0.630         -1.18  
#>  8 2021-08-01  0.643  0.411          0.643 
#>  9 2021-09-01  1.51   0.235          1.51  
#> 10 2021-10-01  2.13   0.136          1.74  
#> # … with 14 more rows
…
