…
rec_obj <- recipe(value ~ ., df_tbl)

hai_data_transform(
  .recipe_object = rec_obj,
  value,
  .type_of_scale = "log"
)$new_rec_obj %>%
  get_juiced_data()
#> # A tibble: 100 × 2
#>    date_col   value
#>    <date>     <dbl>
#>  1 2013-01-01 0.849
#>  2 2013-02-01 2.03 
#>  3 2013-03-01 1.11 
#>  4 2013-04-01 1.15 
#>  5 2013-05-01 2.29 
#>  6 2013-06-01 2.00 
#>  7 2013-07-01 1.89 
#>  8 2013-08-01 1.74 
#>  9 2013-09-01 1.29 
#> 10 2013-10-01 2.22 
#> # ℹ 90 more rows
```
