…
``` r
suppressPackageStartupMessages(library(dplyr))

len_out <- 24
by_unit <- "month"
start_date <- as.Date("2021-01-01")

data_tbl <- tibble(
  date_col = seq.Date(from = start_date, length.out = len_out, by = by_unit),
  a = rnorm(len_out),
  b = runif(len_out)
)

hai_fourier_discrete_augment(data_tbl, b, .period = 2 * 12, .order = 1, .scale_type = "sin")
#> # A tibble: 24 × 4
#>    date_col        a     b fourier_discrete_b_sin
#>    <date>      <dbl> <dbl>                  <dbl>
#>  1 2021-01-01 -2.27  0.450                      1
#>  2 2021-02-01 -1.27  0.837                      1
#>  3 2021-03-01  0.635 0.501                      1
#>  4 2021-04-01  0.280 0.535                      1
#>  5 2021-05-01  1.10  0.187                      1
#>  6 2021-06-01  0.636 0.681                      1
#>  7 2021-07-01  0.839 0.952                      1
#>  8 2021-08-01 -0.350 0.186                      1
#>  9 2021-09-01  1.10  0.281                      1
#> 10 2021-10-01 -0.276 0.501                      1
#> # ℹ 14 more rows
hai_fourier_discrete_augment(data_tbl, b, .period = 2 * 12, .order = 1, .scale_type = "cos")
#> # A tibble: 24 × 4
#>    date_col        a     b fourier_discrete_b_cos
#>    <date>      <dbl> <dbl>                  <dbl>
#>  1 2021-01-01 -2.27  0.450                      1
#>  2 2021-02-01 -1.27  0.837                      1
#>  3 2021-03-01  0.635 0.501                      1
#>  4 2021-04-01  0.280 0.535                      1
#>  5 2021-05-01  1.10  0.187                      1
#>  6 2021-06-01  0.636 0.681                      1
#>  7 2021-07-01  0.839 0.952                      1
#>  8 2021-08-01 -0.350 0.186                      1
#>  9 2021-09-01  1.10  0.281                      1
#> 10 2021-10-01 -0.276 0.501                      1
#> # ℹ 14 more rows
```
