…
hai_c50_data_prepper(.data = Titanic, .recipe_formula = Survived ~ .)
#> 
#> ── Recipe ──────────────────────────────────────────────────────────────────────
#> 
#> ── Inputs 
#> Number of variables by role
#> outcome:   1
#> predictor: 4
#> 
#> ── Operations 
#> • Factor variables from: tidyselect::vars_select_helpers$where(is.character)
rec_obj <- hai_c50_data_prepper(Titanic, Survived ~ .)
get_juiced_data(rec_obj)
#> # A tibble: 32 × 5
#>    Class Sex    Age       n Survived
#>    <fct> <fct>  <fct> <dbl> <fct>   
#>  1 1st   Male   Child     0 No      
#>  2 2nd   Male   Child     0 No      
#>  3 3rd   Male   Child    35 No      
#>  4 Crew  Male   Child     0 No      
#>  5 1st   Female Child     0 No      
#>  6 2nd   Female Child     0 No      
#>  7 3rd   Female Child    17 No      
#>  8 Crew  Female Child     0 No      
#>  9 1st   Male   Adult   118 No      
#> 10 2nd   Male   Adult   154 No      
#> # ℹ 22 more rows
```
