…
rec_obj <- recipe(value ~ ., df_tbl)

hai_data_scale(
  .recipe_object = rec_obj,
  value,
  .type_of_scale = "center"
)$new_rec_obj %>%
  get_juiced_data()
#> # A tibble: 100 × 2
#>    date_col    value
#>    <date>      <dbl>
#>  1 2013-01-01 -0.141
#>  2 2013-02-01  2.27 
#>  3 2013-03-01  1.70 
#>  4 2013-04-01  1.84 
#>  5 2013-05-01 -1.96 
#>  6 2013-06-01  2.46 
#>  7 2013-07-01 -2.30 
#>  8 2013-08-01 -2.93 
#>  9 2013-09-01 -1.88 
#> 10 2013-10-01  0.931
#> # ℹ 90 more rows
```
