Augment Function Scale Zero One — hai_scale_zero_one_augment • healthyR.ai
…
Other Scale: 
hai_scale_zero_one_vec(),
hai_scale_zscore_augment(),
hai_scale_zscore_vec(),
step_hai_scale_zscore()

    Author

    Steven P. Sanderson II, MPH

    Examples

df <- data.frame(x = rnorm(100, 2, 1))
hai_scale_zero_one_augment(df, x)
#> # A tibble: 100 × 2
#>        x hai_scale_zero_one_x
#>    <dbl>                <dbl>
#>  1 3.34                 0.810
#>  2 3.99                 0.966
#>  3 1.73                 0.426
#>  4 2.02                 0.496
#>  5 3.19                 0.774
#>  6 2.75                 0.670
#>  7 0.401                0.109
#>  8 2.26                 0.552
#>  9 1.18                 0.295
#> 10 3.92                 0.949
#> # ℹ 90 more rows
…
