…
``` r
suppressPackageStartupMessages(library(dplyr))

len_out <- 24
by_unit <- "month"
start_date <- as.Date("2021-01-01")

data_tbl <- tibble(
  date_col = seq.Date(from = start_date, length.out = len_out, by = by_unit),
  a = rnorm(len_out),
  b = runif(len_out)
)

hai_winsorized_move_augment(data_tbl, a, .multiple = 3)
#> # A tibble: 24 × 4
#>    date_col        a       b winsor_scale_a
#>    <date>      <dbl>   <dbl>          <dbl>
#>  1 2021-01-01  0.115 0.231            0.115
#>  2 2021-02-01  1.33  0.861            1.33 
#>  3 2021-03-01  1.13  0.447            1.13 
#>  4 2021-04-01 -1.38  0.00849         -1.38 
#>  5 2021-05-01 -0.843 0.879           -0.843
#>  6 2021-06-01  1.26  0.809            1.26 
#>  7 2021-07-01 -1.25  0.371           -1.25 
#>  8 2021-08-01  0.390 0.0133           0.390
#>  9 2021-09-01 -0.234 0.814           -0.234
#> 10 2021-10-01  0.185 0.644            0.185
#> # ℹ 14 more rows
```
