…
uit_tbl <- hai_kmeans_user_item_tbl(
  .data = data_tbl,
  .row_input = service_line,
  .col_input = payer_grouping,
  .record_input = record
)

km_obj <- hai_kmeans_obj(uit_tbl)

hai_kmeans_tidy_tbl(
  .kmeans_obj = km_obj,
  .data = uit_tbl,
  .tidy_type = "augment"
)
#> # A tibble: 23 × 2
#>    service_line                  cluster
#>    <chr>                         <fct>  
#>  1 Alcohol Abuse                 1      
#>  2 Bariatric Surgery For Obesity 3      
#>  3 CHF                           5      
#>  4 COPD                          5      
#>  5 CVA                           5      
#>  6 Carotid Endarterectomy        5      
#>  7 Cellulitis                    4      
#>  8 Chest Pain                    4      
#>  9 GI Hemorrhage                 5      
#> 10 Joint Replacement             5      
#> # ℹ 13 more rows
…
