…
## Author

Steven P. Sanderson II, MPH

## Examples

``` r
df <- data.frame(x = mtcars$mpg)
hai_scale_zscore_augment(df, x)
#> # A tibble: 32 × 2
#>        x hai_scale_zscore_x
#>    <dbl>              <dbl>
#>  1  21                0.151
#>  2  21                0.151
#>  3  22.8              0.450
#>  4  21.4              0.217
#>  5  18.7             -0.231
#>  6  18.1             -0.330
#>  7  14.3             -0.961
#>  8  24.4              0.715
#>  9  22.8              0.450
#> 10  19.2             -0.148
#> # ℹ 22 more rows
```
