Data Preprocessor - Imputation — hai_data_impute • healthyR.ai
…
rec_obj <- recipe(value ~., df_tbl)

healthyR.ai:::hai_data_impute(
    .recipe_object = rec_obj,
    value,
    .type_of_imputation = "roll",
.roll_statistic = median
)$impute_rec_obj %.html'>%>%
    get_juiced_data()
#> # A tibble: 100 x 2
#>    date_col    value
#>    <date>      <dbl>
#>  1 2013-01-01  0.616
#>  2 2013-02-01  1.97 
#>  3 2013-03-01  1.88 
#>  4 2013-04-01 -1.59 
#>  5 2013-05-01 -0.540
#>  6 2013-06-01 -1.17 
#>  7 2013-07-01  0.559
#>  8 2013-08-01 -1.82 
#>  9 2013-09-01  0.393
#> 10 2013-10-01  0.505
#> # ... with 90 more rows
…
