Data Preprocessor - Trigonometric Functions — hai_data_trig • healthyR.ai
…
rec_obj <- recipe(value ~., df_tbl)

healthyR.ai:::hai_data_trig(
    .recipe_object = rec_obj,
    value,
    .type_of_scale = "sin"
)$scale_rec_obj %.html'>%>%
    get_juiced_data()
#> # A tibble: 100 x 2
#>    date_col    value
#>    <date>      <dbl>
#>  1 2013-01-01 -0.868
#>  2 2013-02-01 -0.227
#>  3 2013-03-01 -0.983
#>  4 2013-04-01 -0.903
#>  5 2013-05-01 -0.825
#>  6 2013-06-01  0.963
#>  7 2013-07-01  0.974
#>  8 2013-08-01 -0.181
#>  9 2013-09-01 -0.474
#> 10 2013-10-01  0.994
#> # ... with 90 more rows
…
