…
rec_obj <- recipe(value ~ ., df_tbl)

hai_data_trig(
  .recipe_object = rec_obj,
  value,
  .type_of_scale = "sinh"
)$new_rec_obj %>%
  get_juiced_data()
#> # A tibble: 100 × 2
#>    date_col    value
#>    <date>      <dbl>
#>  1 2013-01-01 2345. 
#>  2 2013-02-01  393. 
#>  3 2013-03-01  101. 
#>  4 2013-04-01  166. 
#>  5 2013-05-01  216. 
#>  6 2013-06-01  437. 
#>  7 2013-07-01  210. 
#>  8 2013-08-01  205. 
#>  9 2013-09-01 1298. 
#> 10 2013-10-01   51.3
#> # ℹ 90 more rows
```
