…
## Author

Steven P. Sanderson II, MPH

## Examples

``` r
df <- data.frame(x = rnorm(100, 2, 1))
hai_scale_zero_one_augment(df, x)
#> # A tibble: 100 × 2
#>        x hai_scale_zero_one_x
#>    <dbl>                <dbl>
#>  1 2.25                 0.537
#>  2 3.93                 0.850
#>  3 2.61                 0.603
#>  4 2.26                 0.539
#>  5 2.94                 0.665
#>  6 3.78                 0.822
#>  7 2.76                 0.632
#>  8 0.603                0.231
#>  9 2.04                 0.498
#> 10 2.37                 0.559
#> # ℹ 90 more rows
```
