…
#> [14,] -0.9173445  0.6489176
#> [15,]  0.1387130 -0.2898183
#> [16,] -0.1390712  0.5165686
#> [17,]  0.8088696 -1.0972915
#> [18,] -0.3292845  1.6555008
#> [19,] -0.4978821  0.4275813
#> [20,]  0.2071733 -1.1744819
#> [21,]  0.3182040 -0.6837402
#> [22,] -0.7576456  2.1124949
#> [23,]  0.7113548 -1.5312629
#> attr(,"scaled:center")
#> [1]  0.1631531 -9.4144959
#> 
#> $umap_results_tbl
#> # A tibble: 23 × 3
#>         x      y service_line                 
#>     <dbl>  <dbl> <chr>                        
#>  1 -1.20   2.00  Alcohol Abuse                
#>  2 -1.11   1.50  Bariatric Surgery For Obesity
#>  3  1.20  -2.01  CHF                          
#>  4  0.668 -0.227 COPD                         
#>  5  1.20  -0.804 CVA                          
#>  6  0.766 -1.94  Carotid Endarterectomy       
#>  7 -0.189  1.02  Cellulitis                   
#>  8 -0.598  0.934 Chest Pain                   
#>  9  0.448 -1.81  GI Hemorrhage                
#> 10 -0.190 -0.854 Joint Replacement            
#> # ℹ 13 more rows
…
#> 
#> Clustering vector:
#>  [1] 2 2 3 3 3 3 1 1 3 3 2 3 2 1 3 1 3 1 1 3 3 2 3
#> 
#> Within cluster sum of squares by cluster:
#> [1] 0.08456928 0.19152559 0.09625399
#>  (between_SS / total_SS =  73.6 %)
#> 
#> Available components:
#> 
#> [1] "cluster"      "centers"      "totss"        "withinss"     "tot.withinss"
#> [6] "betweenss"    "size"         "iter"         "ifault"      
#> 
#> $kmeans_cluster_tbl
#> # A tibble: 23 × 2
#>    service_line                  .cluster
#>    <chr>                         <fct>   
#>  1 Alcohol Abuse                 2       
#>  2 Bariatric Surgery For Obesity 2       
#>  3 CHF                           3       
#>  4 COPD                          3       
#>  5 CVA                           3       
#>  6 Carotid Endarterectomy        3       
#>  7 Cellulitis                    1       
#>  8 Chest Pain                    1       
#>  9 GI Hemorrhage                 3       
#> 10 Joint Replacement             3       
#> # ℹ 13 more rows
#> 
#> $umap_kmeans_cluster_results_tbl
#> # A tibble: 23 × 4
#>         x      y service_line                  .cluster
#>     <dbl>  <dbl> <chr>                         <fct>   
#>  1 -1.20   2.00  Alcohol Abuse                 2       
#>  2 -1.11   1.50  Bariatric Surgery For Obesity 2       
#>  3  1.20  -2.01  CHF                           3       
#>  4  0.668 -0.227 COPD                          3       
#>  5  1.20  -0.804 CVA                           3       
#>  6  0.766 -1.94  Carotid Endarterectomy        3       
#>  7 -0.189  1.02  Cellulitis                    1       
#>  8 -0.598  0.934 Chest Pain                    1       
#>  9  0.448 -1.81  GI Hemorrhage                 3       
#> 10 -0.190 -0.854 Joint Replacement             3       
#> # ℹ 13 more rows
…
