…
# Bake the recipe object - Adds the Time Series Signature
bake(prep(rec_obj), data_tbl)
#> # A tibble: 32 × 3
#>        b     a hai_scale_zscore_b
#>    <dbl> <dbl>              <dbl>
#>  1   112  21               -1.24 
#>  2   118  21               -1.00 
#>  3   132  22.8             -0.444
#>  4   129  21.4             -0.564
#>  5   121  18.7             -0.884
#>  6   135  18.1             -0.325
#>  7   148  14.3              0.195
#>  8   148  24.4              0.195
#>  9   136  22.8             -0.285
#> 10   119  19.2             -0.964
#> # ℹ 22 more rows

rec_obj %>%
  prep() %>%
  juice()
#> # A tibble: 32 × 3
#>        b     a hai_scale_zscore_b
#>    <dbl> <dbl>              <dbl>
#>  1   112  21               -1.24 
#>  2   118  21               -1.00 
#>  3   132  22.8             -0.444
#>  4   129  21.4             -0.564
#>  5   121  18.7             -0.884
#>  6   135  18.1             -0.325
#>  7   148  14.3              0.195
#>  8   148  24.4              0.195
#>  9   136  22.8             -0.285
#> 10   119  19.2             -0.964
#> # ℹ 22 more rows
```
