…
# Bake the recipe object - Adds the Time Series Signature
bake(prep(rec_obj), data_tbl)
#> # A tibble: 200 × 3
#>         b     a hai_scale_zero_one_b
#>     <dbl> <dbl>                <dbl>
#>  1  1.41   1.15            0.320    
#>  2  2.94   1.83            0.452    
#>  3  1.98   1.87            0.369    
#>  4 -2.30   1.90            0.0000403
#>  5  0.980  3.78            0.283    
#>  6  4.20   2.68            0.560    
#>  7  0.352  2.12            0.229    
#>  8  3.43   3.21            0.494    
#>  9  3.94   3.99            0.537    
#> 10  1.26   3.63            0.307    
#> # ℹ 190 more rows

rec_obj %>%
  prep() %>%
  juice()
#> # A tibble: 200 × 3
#>         b     a hai_scale_zero_one_b
#>     <dbl> <dbl>                <dbl>
#>  1  1.41   1.15            0.320    
#>  2  2.94   1.83            0.452    
#>  3  1.98   1.87            0.369    
#>  4 -2.30   1.90            0.0000403
#>  5  0.980  3.78            0.283    
#>  6  4.20   2.68            0.560    
#>  7  0.352  2.12            0.229    
#>  8  3.43   3.21            0.494    
#>  9  3.94   3.99            0.537    
#> 10  1.26   3.63            0.307    
#> # ℹ 190 more rows
```
